<?xml version="1.0" encoding="utf-8"?>
<!-- Generator: Adobe Illustrator 22.0.0, SVG Export Plug-In . SVG Version: 6.00 Build 0)  -->
<svg version="1.1" id="Слой_1" xmlns="http://www.w3.org/2000/svg" xmlns:xlink="http://www.w3.org/1999/xlink" x="0px" y="0px"
	 viewBox="0 0 33.5 33.5" style="enable-background:new 0 0 33.5 33.5;" xml:space="preserve">
<style type="text/css">
	.st0{fill:none;stroke:#fff;stroke-width:1.1;stroke-miterlimit:10;}
	.st1{fill:#fff;}
</style>
<path class="st0" d="M32.7,16.9c0,1-0.1,2.1-0.3,3c-0.2,0.8-2.8-1.5-4.2,1c-1.9,3.2,2.6,3.6,2.1,4.5c-1.3,2.1-3,3.9-5.1,5.1
	c-0.7,0.4-0.8-3.5-3.8-2.5c-3,1-0.3,4.3-1.4,4.5c-1,0.2-2.1,0.3-3.2,0.3c-1.3,0-2.5-0.1-3.7-0.4c-0.9-0.2,1.6-3.6-1.5-4.6
	c-3-1-2.9,2.8-3.7,2.3c-2.1-1.4-3.9-3.3-5.1-5.5c-0.5-0.9,2.9-1.2,1.9-3.8c-1.1-2.8-3.6-0.6-3.8-1.4c-0.1-0.8-0.2-1.7-0.2-2.6
	c0-1.4,0-2.1,0.4-3.4c0.2-0.8,3.3,1.3,4-1.5C5.8,9.5,2.7,9.3,3,8.8c1.3-2.3,3.2-4.1,5.4-5.5C9.1,2.9,9,6.3,12,5.1
	c2.3-0.9,0.1-3.5,1-3.7c1.2-0.3,2.5-0.5,3.8-0.5c1.2,0,2.3,0.1,3.4,0.4c0.9,0.2-1.4,2.4,1.1,3.6c1.8,0.8,2.8-2.2,3.4-1.8
	c2.1,1.2,3.9,2.9,5.3,4.9c0.5,0.7-3.1,1.2-2.3,3.7c0.9,2.8,4.3,0.1,4.5,0.9C32.5,13.9,32.7,15.4,32.7,16.9z"/>
<circle class="st0" cx="16.8" cy="16.9" r="8.9"/>
<path class="st1" d="M18.9,16.5c0,0,1-0.3,0.9-1.5c-0.1-1.3-1.8-1.8-1.8-1.8l0-1.6h-0.7l0,1.6l-1.2,0l0-1.6h-0.7V13h-2v0.7
	c0,0,1,0,1.2,0.3c0.1,0.1,0,5.3-0.1,5.4c-0.2,0.2-1.1,0.2-1.1,0.2v0.8h1.9l0,1.6h0.7l0-1.6h1.2l0,1.6h0.7l0-1.6c0,0,0.8,0,1.1,0
	c0.2,0,1.4-0.4,1.5-2C20.5,16.9,18.9,16.5,18.9,16.5z M15.6,14.1c0,0,3.2-0.4,3.2,1.1c0,1.3-3.2,0.9-3.2,0.9V14.1z M15.6,19.3v-2.2
	c0,0,3.7-0.5,3.7,1.2C19.3,20,15.6,19.3,15.6,19.3z"/>
</svg>
