<?xml version="1.0" encoding="utf-8"?>
<!-- Generator: Adobe Illustrator 22.0.0, SVG Export Plug-In . SVG Version: 6.00 Build 0)  -->
<svg version="1.1" id="Слой_1" xmlns="http://www.w3.org/2000/svg" xmlns:xlink="http://www.w3.org/1999/xlink" x="0px" y="0px"
	 viewBox="0 0 36.5 33.5" style="enable-background:new 0 0 36.5 33.5;" xml:space="preserve">
<style type="text/css">
	.st0{fill:none;stroke:#fff;stroke-width:1.1;stroke-miterlimit:10;}
</style>
<path class="st0" d="M35.8,28.5c0,0-5.6-3.3-11.4-3c-3.9,0.2-4.1,2.1-4.5,2.3c-0.4,0.2-2.8,0.2-3.1,0c-0.5-0.3-0.6-1.6-4.1-2
	c-5.9-0.7-11.9,2.6-11.9,2.6V4.8c0,0,6.2-2.5,10.8-2.5c3.8,0,6.9,2.5,6.9,2.5s3.1-2.5,6.6-2.5c5.2,0,10.8,2.6,10.8,2.6L35.8,28.5z"
	/>
<line class="st0" x1="18.4" y1="4.8" x2="18.3" y2="26.5"/>
<path class="st0" d="M0.3,31.8c0,0,6.1-3.3,11.7-3.4c2.9-0.1,3.5,2.1,4.3,2.5c0.5,0.2,3.5,0.3,4-0.1c0.6-0.4,1.8-2.6,4.6-2.6
	c5,0,11.4,3.7,11.4,3.7"/>
</svg>
